<svg width="16" height="14" viewBox="0 0 16 14" fill="none" xmlns="http://www.w3.org/2000/svg">
    <path d="M14.6667 10.8333L12 13.5M12 13.5L9.33337 10.8333M12 13.5V1.5" stroke="black"
        stroke-linecap="round" stroke-linejoin="round" />
    <path d="M1.33337 3.16667L4.00004 0.5M4.00004 0.5L6.66671 3.16667M4.00004 0.5V12.5"
        stroke="#71717A" stroke-linecap="round" stroke-linejoin="round" />
</svg>