<svg width="24" height="24" viewBox="0 0 24 24" fill="none" xmlns="http://www.w3.org/2000/svg">
<path d="M4 17L8 13M8 7H20H8ZM20 7L16 3L20 7ZM20 7L16 11L20 7ZM16 17H4H16ZM4 17L8 21L4 17Z" stroke="currentColor" stroke-width="2" stroke-linecap="round" stroke-linejoin="round"/>
</svg>
